Step,ObjectName,Description,Action,Input,Condition,Reference
1,Browser,Open the Url [<Data>] in the Browser,Open,Desktop:MyAccountURL,,
2,Browser,Wait for Page to be loaded,waitForPageLoaded,,,
3,Browser,Wait for [<Data>] milli seconds,pause,@12000,,
4,ShippingandBilling,"Wait for [<Object>] to be visible ",waitForElementToBeVisible,,,AddressBook
5,ShippingandBilling,"Click the [<Object>] ",Click,,,AddressBook
6,Browser,Wait for Page to be loaded,waitForPageLoaded,,,
7,Browser,Wait for [<Data>] milli seconds,pause,@5000,,
8,AddNewAddress,"Click the [<Object>] ",Click,,,AddressBook
9,Browser,Wait for [<Data>] milli seconds,pause,@10000,,
10,Title,Select all options from a select Element [<Object>],selectByIndex,@2,,Checkout
11,TitleX,Select all options from a select Element [<Object>],selectByIndex,@2,,Checkout
12,First Name,Enter the value [<Data>] in the Field [<Object>],Set,Desktop:FirstName,,Checkout
13,Last Name,Enter the value [<Data>] in the Field [<Object>],Set,Desktop:LastName,,Checkout
14,Phone,Set [<Data>] on [<Object>],setByJS,Desktop:Phone,,Checkout
15,AddAddrManually,Click on [<Object>],clickByJS,,,Checkout
16,Browser,Wait for [<Data>] milli seconds,pause,@5000,,
17,Address1,Enter the value [<Data>] in the Field [<Object>],Set,Desktop:Address,,Checkout
18,Browser,Wait for [<Data>] milli seconds,pause,@3000,,
19,Zip Code,Enter the value [<Data>] in the Field [<Object>],Set,Desktop:Zipcode,,Checkout
20,Browser,Wait for [<Data>] milli seconds,pause,@5000,,
21,City,clear  the [<Object>] text if any,clear,,,Checkout
22,City,Set [<Data>] on [<Object>],setByJS,Desktop:City,,Checkout
23,Browser,Wait for [<Data>] milli seconds,pause,@3000,,
24,MakeDefaultAddress,Click on [<Object>],clickByJS,,,AddressBook
25,Browser,Wait for [<Data>] milli seconds,pause,@3000,,
26,Submit,Click on [<Object>],clickByJS,,,AddressBook
27,Browser,Wait for Page to be loaded,waitForPageLoaded,,,
28,Browser,Wait for [<Data>] milli seconds,pause,@5000,,
