Step,ObjectName,Description,Action,Input,Condition,Reference
1,Browser,Open the Url [<Data>] in the Browser,Open,Desktop:SPP1,,
2,Browser,Wait for Page to be loaded,waitForPageLoaded,,,
3,Browser,Wait for [<Data>] milli seconds,pause,@10000,,
4,Browser,Send Keys [<Data>]  to Window.,sendKeysToWindow,@Esc,,
5,Browser,"Refresh current page ",refreshDriver,,,
6,Browser,Scroll to [<Data>],scrollTo,"@250,300",,
7,Browser,Wait for [<Data>] milli seconds,pause,@7000,,
8,AddtoBag,Click on [<Object>],clickByJS,,,SPP
9,Browser,Wait for [<Data>] milli seconds,pause,@5000,,
