Step,ObjectName,Description,Action,Input,Condition,Reference
1,Browser,Wait for [<Data>] milli seconds,pause,@3000,,
2,Browser,Open the Url [<Data>] in the Browser,Open,Desktop:MPP,,
3,Browser,Wait for Page to be loaded,waitForPageLoaded,,,
4,Browser,Wait for [<Data>] milli seconds,pause,@5000,,
5,Browser,"Refresh current page ",refreshDriver,,,
6,Browser,Wait for [<Data>] milli seconds,pause,@5000,,
7,MppImage,Hover over the [<Object>] element,mouseOverElement,,,Cosmetics
8,QuickViewMPP,Wait  for the element [<Object>] to be present,waitForElementToBePresent,,,Cosmetics
9,QuickViewMPP,Click on [<Object>],clickByJS,,,Cosmetics
10,Browser,Wait for [<Data>] milli seconds,pause,@5000,,
11,AddtoBag,Click on [<Object>],clickByJS,,,SPP
12,Browser,Wait for [<Data>] milli seconds,pause,@5000,,
13,PopUpClose,Click on [<Object>],ClickIfExists,,,SPP
