Step,ObjectName,Description,Action,Input,Condition,Reference
1,Browser,Wait for [<Data>] milli seconds,pause,@10000,,
2,Place Order,Wait  for the element [<Object>] to be present,waitForElementToBePresent,,,Checkout
3,Place Order,Click on [<Object>],clickByJS,,,Checkout
4,Browser,Wait for [<Data>] milli seconds,pause,@5000,,
5,Ordernumber,Store the [<Object>] element's text into datasheet:columname [<Data>],storeTextinDataSheet,Desktop:Ordernumber,,Checkout
