Step,ObjectName,Description,Action,Input,Condition,Reference
1,Browser,,Open,Desktop:MyAccountURL,,
2,Browser,,waitForPageLoaded,,,
3,Browser,,pause,@12000,,
4,Browser,,sendKeysToWindow,@Esc,,
5,Browser,,refreshDriver,,,UnusedElements
6,Browser,,pause,@3000,,
7,Email Return user,,waitForElementToBeVisible,,,Checkout
8,Email Return user,,Set,Desktop:UserName,,Checkout
9,Password Return user,,Set,Desktop:Password,,Checkout
10,SignIn,,clickByJS,,,MobileElements
11,Browser,,pause,@10000,,
12,Browser,,sendKeysToWindow,@Esc,,
13,Browser,,pause,@3000,,
