Step,ObjectName,Description,Action,Input,Condition,Reference
1,Browser,,Open,Desktop:SPP6,,
2,Browser,,waitForPageLoaded,,,
3,Browser,,pause,@2000,,
4,Browser,,sendKeysToWindow,@Esc,,
5,Browser,,scrollTo,"@250,300",,
6,AddtoBag,,clickByJS,,,SPP
7,Browser,,pause,@5000,,
8,Browser,,Open,Desktop:SPP7,,
9,Browser,,waitForPageLoaded,,,
10,Browser,,pause,@2000,,
11,Browser,,sendKeysToWindow,@Esc,,
12,Browser,,scrollTo,"@250,300",,
13,AddtoBag,,clickByJS,,,SPP
14,Browser,,pause,@5000,,
15,Browser,,Open,Desktop:SPP8,,
16,Browser,,waitForPageLoaded,,,
17,Browser,,pause,@2000,,
18,Browser,,sendKeysToWindow,@Esc,,
19,Browser,,scrollTo,"@250,300",,
20,AddtoBag,,clickByJS,,,SPP
21,Browser,,pause,@5000,,
22,Browser,,Open,Desktop:SPP9,,
23,Browser,,waitForPageLoaded,,,
24,Browser,,pause,@2000,,
25,Browser,,sendKeysToWindow,@Esc,,
26,Browser,,scrollTo,"@250,300",,
27,AddtoBag,,clickByJS,,,SPP
28,Browser,,pause,@5000,,
29,Browser,,Open,Desktop:SPP10,,
30,Browser,,waitForPageLoaded,,,
31,Browser,,pause,@2000,,
32,Browser,,sendKeysToWindow,@Esc,,
33,Browser,,scrollTo,"@250,300",,
34,AddtoBag,,clickByJS,,,SPP
35,Browser,,pause,@5000,,
