Step,ObjectName,Description,Action,Input,Condition,Reference
1,Browser,,Open,Desktop:SPP1,,
2,Browser,,waitForPageLoaded,,,
3,Browser,,pause,@10000,,
4,Browser,,sendKeysToWindow,@Esc,,
5,Browser,,scrollTo,"@250,450",,
6,FavouriteIcon,,clickByJS,,,SPP
7,Browser,,pause,@7000,,
8,Browser,,Open,Desktop:SPP2,,
9,Browser,,waitForPageLoaded,,,
10,Browser,,pause,@2000,,
11,Browser,,sendKeysToWindow,@Esc,,
12,Browser,,scrollTo,"@250,450",,
13,FavouriteIcon,,clickByJS,,,SPP
14,Browser,,pause,@7000,,
15,Browser,,Open,Desktop:SPP3,,
16,Browser,,waitForPageLoaded,,,
17,Browser,,pause,@2000,,
18,Browser,,sendKeysToWindow,@Esc,,
19,Browser,,scrollTo,"@250,450",,
20,FavouriteIcon,,clickByJS,,,SPP
21,Browser,,pause,@7000,,
22,Browser,,Open,Desktop:SPP4,,
23,Browser,,waitForPageLoaded,,,
24,Browser,,pause,@2000,,
25,Browser,,sendKeysToWindow,@Esc,,
26,Browser,,scrollTo,"@250,450",,
27,FavouriteIcon,,clickByJS,,,SPP
28,Browser,,pause,@7000,,
29,Browser,,Open,Desktop:SPP5,,
30,Browser,,waitForPageLoaded,,,
31,Browser,,pause,@2000,,
32,Browser,,sendKeysToWindow,@Esc,,
33,Browser,,scrollTo,"@250,450",,
34,FavouriteIcon,,clickByJS,,,SPP
35,Browser,,pause,@7000,,
