Step,ObjectName,Description,Action,Input,Condition,Reference
1,Browser,,Open,Desktop:SPP1,,
2,Browser,,waitForPageLoaded,,,
3,Browser,,pause,@10000,,
4,Browser,,sendKeysToWindow,@Esc,,
5,Close button,,ClickIfExists,,,UnusedElements
6,Browser,,scrollTo,"@250,300",,
7,Browser,,pause,@7000,,
8,AddtoBag,,clickByJS,,,SPP
9,Browser,,pause,@5000,,
