Step,ObjectName,Description,Action,Input,Condition,Reference
1,Browser,,pause,@3000,,
2,PaymentEdit,,waitForElementToBeClickable,,,Edit
3,PaymentEdit,,clickByJS,,,Edit
4,Browser,,pause,@5000,,
5,ChangeBilling,,clickByJS,,,Edit
6,Browser,,pause,@5000,,
7,AddNewAddress,,clickByJS,,,AddressBook
8,Browser,,pause,@5000,,
9,First Name,,Set,@ELC,,Checkout
10,Last Name,,Set,@Online,,Checkout
11,Phone,,Set,Desktop:Phone,,Checkout
12,Address 1 google,,Set,Desktop:Address,,Checkout
13,Zip Code,,SetIfExists,@35005,,Checkout
14,Browser,,pause,@5000,,
15,City,,clear,,,Checkout
16,City,,Set,@adamsville,,Checkout
17,Browser,,sendKeysToWindow,@Tab,,
18,Browser,,sendKeysToWindow,@Down,,
19,Browser,,sendKeysToWindow,@Down,,
20,Browser,,sendKeysToWindow,@Enter,,
21,Browser,,pause,@10000,,
22,Continue payment,,clickByJS,,,Checkout
23,Browser,,waitForPageLoaded,,,
24,Browser,,pause,@10000,,
