Step,ObjectName,Description,Action,Input,Condition,Reference
1,Browser,,pause,@3000,,
2,Browser,,waitForPageLoaded,,,
3,AccountProfile,,waitForElementToBeClickable,,,View
4,AccountProfile,,clickByJS,,,View
5,Browser,,waitForPageLoaded,,,
6,Browser,,pause,@5000,,
7,Browser,,sendKeysToWindow,@Esc,,
8,EmailEL,,SetIfExists,Desktop:EmailUpdate,,View
9,Email,,SetIfExists,Desktop:EmailUpdate,,View
10,PasswordEL,,SetIfExists,Desktop:PasswordUpdate,,View
11,Password,,SetIfExists,Desktop:PasswordUpdate,,View
12,Update,,clickByJS,,,View
13,Browser,,waitForPageLoaded,,,
14,Browser,,pause,@5000,,
