Step,ObjectName,Description,Action,Input,Condition,Reference
1,Browser,,Open,Desktop:URL,,
2,Browser,,ClearCache,,,
3,Browser,,waitForPageLoaded,,,
4,Close button,,ClickIfExists,,,UnusedElements
5,Browser,,pause,@5000,,
6,Browser,,sendKeysToWindow,@Esc,,
7,Browser,,scrollToBottom,,,
8,ContactUs,,waitForElementToBePresent,,,Cosmetics
9,ContactUs,,clickByJS,,,Cosmetics
10,Browser,,waitForPageLoaded,,,
11,Browser,,pause,@5000,,
12,Close button,,ClickIfExists,,,UnusedElements
