Step,ObjectName,Description,Action,Input,Condition,Reference
1,Browser,,Open,Desktop:URL,,
2,Browser,,waitForPageLoaded,,,
3,Close button,,ClickIfExists,,,UnusedElements
4,Browser,,pause,@5000,,
5,FirstName,,waitForElementToBePresent,,,EmailSignUp
6,FirstName,,Set,Desktop:FirstName,,EmailSignUp
7,LastName,,Set,Desktop:LastName,,EmailSignUp
8,Email,,Set,Desktop:UserName,,EmailSignUp
9,MM,,Set,@05,,EmailSignUp
10,DD,,Set,@16,,EmailSignUp
11,YY,,Set,@92,,EmailSignUp
12,Phone,,Set,Desktop:Phone,,EmailSignUp
13,Zipcode,,Set,Desktop:Zipcode,,EmailSignUp
14,Browser,,pause,@3000,,
15,T&C,,clickByJS,,,EmailSignUp
16,Browser,,pause,@2000,,
17,SignUp,,clickByJS,,,EmailSignUp
18,Browser,,pause,@15000,,
19,Browser,,waitForPageLoaded,,,
