Step,ObjectName,Description,Action,Input,Condition,Reference
1,Browser,,refreshDriver,,,
2,Browser,,waitForPageLoaded,,,
3,Browser,,pause,@3000,,
4,Zipcode,,Set,Desktop:State,,Store
5,FindStore,,clickByJS,,,Store
6,Browser,,pause,@7000,,
7,LocationError,,assertElementTextIContains,@DIDN'T FIND ANY STORES,,Store
8,Browser,,pause,@3000,,
