Scenario,Flow,Iteration,SubIteration,URL,UserName,Password,FirstName,LastName,Address,Zipcode,City,State,Phone,CC,CVV,Offercode,Gift card no,Gift card pin,Ordernumber,PPEmail,PPpassword,AppPath,ViewcartURL,BillingZipcode,BillingCity,MyAccountURL,SPP1,SPP2,SPP3,SPP4,SPP5,SPP6,SPP7,SPP8,SPP9,SPP10,Search,EmailUpdate,PasswordUpdate,StartLocation,MPP,OfferCode1,MobileURL,DD,MM,VisaCC
TestScripts-PC,TC01_NU_10products_cartpagechecks_checkout,1,1,http://www.darphin.co.uk/product/8491/21417/skincare/collections/intral/intral-redness-relief-soothing-serum/for-a-soothed-looking-complexion/index.tmpl,elcdarphin1@gmail.com,111111,Test,Test,20 Dean's Yard,SW1P3PA,London,AL,6598743215,5555555555554444,312,aqa_exship,,,,sjarre_1360284165_per@gmail.com,elconline,D:\Spritz_Setup_5_0\Spritz 5.0\Projects\TestAttributes_BB\BB_Loop.exe,https://www.darphin.co.uk/checkout/viewcart.tmpl,,,https://www.darphin.co.uk/account/index.tmpl,http://www.darphin.co.uk/product/8491/21419/skincare/collections/intral/intral-cleansing-milk/sensitive-skin/index.tmpl,http://www.darphin.co.uk/product/8491/21618/skincare/collections/intral/intral-soothing-cream/for-a-soothed-looking-complexion/index.tmpl,http://www.darphin.co.uk/product/8491/21668/skincare/collections/intral/intral-shield-spf50/for-sensitive-skin/index.tmpl,http://www.darphin.co.uk/product/8470/37507/skincare/category/essential-oil-elixirs/8-flower-nectar-oil-cream/deeply-moisturising-and-nourishing/index.tmpl,http://www.darphin.co.uk/product/8470/21285/skincare/category/essential-oil-elixirs/aromatic-purifying-balm/overnight-treatment/index.tmpl,http://www.darphin.co.uk/product/8432/21251/skincare/category/best-sellers/azahar-cleansing-micellar-water/all-in-one-french-cleanser/index.tmpl,http://www.darphin.co.uk/product/8432/42593/skincare/category/best-sellers/lumire-essentielle-serum/index.tmpl,http://www.darphin.co.uk/product/8432/21661/skincare/category/best-sellers/hydraskin-intensive-moisturising-serum/hydrating-serum/index.tmpl,http://www.darphin.co.uk/product/8432/42054/skincare/category/best-sellers/linstitut-facial-sonic-cleansing-and-massaging-expert/the-perfect-cleansing-experience/index.tmpl,http://www.darphin.co.uk/product/8432/21552/skincare/category/best-sellers/skin-mat-purifying-aromatic-clay-mask/index.tmpl,http://www.darphin.co.uk/products/search/esearch.tmpl?search=face,,,,,,,,,4111111111111111
TestScripts-Mobile,TC01_NU_10products_cartpagechecks_checkout,1,1,http://www.darphin.co.uk/product/8491/21417/skincare/collections/intral/intral-redness-relief-soothing-serum/for-a-soothed-looking-complexion/index.tmpl,elcdarphin2@gmail.com,111111,Test,Test,20 Dean's Yard,SW1P3PA,London,AL,6598743215,5555555555554444,312,aqa_exship,,,,sjarre_1360284165_per@gmail.com,elconline,D:\Spritz_Setup_5_0\Spritz 5.0\Projects\TestAttributes_BB\BB_Loop.exe,https://www.darphin.co.uk/checkout/viewcart.tmpl,,,https://www.darphin.co.uk/account/index.tmpl,http://www.darphin.co.uk/product/8491/21419/skincare/collections/intral/intral-cleansing-milk/sensitive-skin/index.tmpl,http://www.darphin.co.uk/product/8491/21618/skincare/collections/intral/intral-soothing-cream/for-a-soothed-looking-complexion/index.tmpl,http://www.darphin.co.uk/product/8491/21668/skincare/collections/intral/intral-shield-spf50/for-sensitive-skin/index.tmpl,http://www.darphin.co.uk/product/8470/37507/skincare/category/essential-oil-elixirs/8-flower-nectar-oil-cream/deeply-moisturising-and-nourishing/index.tmpl,http://www.darphin.co.uk/product/8470/21285/skincare/category/essential-oil-elixirs/aromatic-purifying-balm/overnight-treatment/index.tmpl,http://www.darphin.co.uk/product/8432/21251/skincare/category/best-sellers/azahar-cleansing-micellar-water/all-in-one-french-cleanser/index.tmpl,http://www.darphin.co.uk/product/8432/42593/skincare/category/best-sellers/lumire-essentielle-serum/index.tmpl,http://www.darphin.co.uk/product/8432/21661/skincare/category/best-sellers/hydraskin-intensive-moisturising-serum/hydrating-serum/index.tmpl,http://www.darphin.co.uk/product/8432/42054/skincare/category/best-sellers/linstitut-facial-sonic-cleansing-and-massaging-expert/the-perfect-cleansing-experience/index.tmpl,http://www.darphin.co.uk/product/8432/21552/skincare/category/best-sellers/skin-mat-purifying-aromatic-clay-mask/index.tmpl,http://www.darphin.co.uk/products/search/esearch.tmpl?search=face,,,,,,,,,4111111111111111
TestScripts-PC,TC02_RU_onfile_itemsincart_cartpagechecks_checkout,1,1,http://www.darphin.co.uk/product/8491/21417/skincare/collections/intral/intral-redness-relief-soothing-serum/for-a-soothed-looking-complexion/index.tmpl,elcglobal2@gmail.com,111111,Test,Test,20 Dean's Yard,SW1P3PA,London,AL,6598743215,5555555555554444,312,aqa_exship,,,24866802,sjarre_1360284165_per@gmail.com,elconline,D:\Spritz_Setup_5_0\Spritz 5.0\Projects\TestAttributes_BB\BB_Loop.exe,https://www.darphin.co.uk/checkout/viewcart.tmpl,,,https://www.darphin.co.uk/account/index.tmpl,http://www.darphin.co.uk/product/8491/21419/skincare/collections/intral/intral-cleansing-milk/sensitive-skin/index.tmpl,http://www.darphin.co.uk/product/8491/21618/skincare/collections/intral/intral-soothing-cream/for-a-soothed-looking-complexion/index.tmpl,http://www.darphin.co.uk/product/8491/21668/skincare/collections/intral/intral-shield-spf50/for-sensitive-skin/index.tmpl,http://www.darphin.co.uk/product/8470/37507/skincare/category/essential-oil-elixirs/8-flower-nectar-oil-cream/deeply-moisturising-and-nourishing/index.tmpl,http://www.darphin.co.uk/product/8470/21285/skincare/category/essential-oil-elixirs/aromatic-purifying-balm/overnight-treatment/index.tmpl,http://www.darphin.co.uk/product/8432/21251/skincare/category/best-sellers/azahar-cleansing-micellar-water/all-in-one-french-cleanser/index.tmpl,http://www.darphin.co.uk/product/8432/42593/skincare/category/best-sellers/lumire-essentielle-serum/index.tmpl,http://www.darphin.co.uk/product/8432/21661/skincare/category/best-sellers/hydraskin-intensive-moisturising-serum/hydrating-serum/index.tmpl,http://www.darphin.co.uk/product/8432/42054/skincare/category/best-sellers/linstitut-facial-sonic-cleansing-and-massaging-expert/the-perfect-cleansing-experience/index.tmpl,http://www.darphin.co.uk/product/8432/21552/skincare/category/best-sellers/skin-mat-purifying-aromatic-clay-mask/index.tmpl,http://www.darphin.co.uk/products/search/esearch.tmpl?search=face,,,,,,,,,4111111111111111
TestScripts-Mobile,TC02_RU_onfile_itemsincart_cartpagechecks_checkout,1,1,http://www.darphin.co.uk/product/8491/21417/skincare/collections/intral/intral-redness-relief-soothing-serum/for-a-soothed-looking-complexion/index.tmpl,elcglobal2@gmail.com,111111,Test,Test,20 Dean's Yard,SW1P3PA,London,AL,6598743215,5555555555554444,312,aqa_exship,,,,sjarre_1360284165_per@gmail.com,elconline,D:\Spritz_Setup_5_0\Spritz 5.0\Projects\TestAttributes_BB\BB_Loop.exe,https://www.darphin.co.uk/checkout/viewcart.tmpl,,,https://www.darphin.co.uk/account/index.tmpl,http://www.darphin.co.uk/product/8491/21419/skincare/collections/intral/intral-cleansing-milk/sensitive-skin/index.tmpl,http://www.darphin.co.uk/product/8491/21618/skincare/collections/intral/intral-soothing-cream/for-a-soothed-looking-complexion/index.tmpl,http://www.darphin.co.uk/product/8491/21668/skincare/collections/intral/intral-shield-spf50/for-sensitive-skin/index.tmpl,http://www.darphin.co.uk/product/8470/37507/skincare/category/essential-oil-elixirs/8-flower-nectar-oil-cream/deeply-moisturising-and-nourishing/index.tmpl,http://www.darphin.co.uk/product/8470/21285/skincare/category/essential-oil-elixirs/aromatic-purifying-balm/overnight-treatment/index.tmpl,http://www.darphin.co.uk/product/8432/21251/skincare/category/best-sellers/azahar-cleansing-micellar-water/all-in-one-french-cleanser/index.tmpl,http://www.darphin.co.uk/product/8432/42593/skincare/category/best-sellers/lumire-essentielle-serum/index.tmpl,http://www.darphin.co.uk/product/8432/21661/skincare/category/best-sellers/hydraskin-intensive-moisturising-serum/hydrating-serum/index.tmpl,http://www.darphin.co.uk/product/8432/42054/skincare/category/best-sellers/linstitut-facial-sonic-cleansing-and-massaging-expert/the-perfect-cleansing-experience/index.tmpl,http://www.darphin.co.uk/product/8432/21552/skincare/category/best-sellers/skin-mat-purifying-aromatic-clay-mask/index.tmpl,http://www.darphin.co.uk/products/search/esearch.tmpl?search=face,,,cambridge,http://www.darphin.co.uk/products/8432/skincare/category/best-sellers/index.tmpl,,,,,4111111111111111
TestScripts-PC,TC03_GU_cartpagechecks_diffBilling_checkout,1,1,http://www.darphin.co.uk/product/8491/21417/skincare/collections/intral/intral-redness-relief-soothing-serum/for-a-soothed-looking-complexion/index.tmpl,elcbobbi21@gmail.com,123456,Test,Test,20 Dean's Yard,SW1P3PA,London,AL,6598743215,5555555555554444,312,aqa_exship,,,,sjarre_1360284165_per@gmail.com,elconline,D:\Spritz_Setup_5_0\Spritz 5.0\Projects\TestAttributes_BB\BB_Loop.exe,https://www.darphin.co.uk/checkout/viewcart.tmpl,,,https://www.darphin.co.uk/account/index.tmpl,http://www.darphin.co.uk/product/8491/21419/skincare/collections/intral/intral-cleansing-milk/sensitive-skin/index.tmpl,http://www.darphin.co.uk/product/8491/21618/skincare/collections/intral/intral-soothing-cream/for-a-soothed-looking-complexion/index.tmpl,http://www.darphin.co.uk/product/8491/21668/skincare/collections/intral/intral-shield-spf50/for-sensitive-skin/index.tmpl,http://www.darphin.co.uk/product/8470/37507/skincare/category/essential-oil-elixirs/8-flower-nectar-oil-cream/deeply-moisturising-and-nourishing/index.tmpl,http://www.darphin.co.uk/product/8470/21285/skincare/category/essential-oil-elixirs/aromatic-purifying-balm/overnight-treatment/index.tmpl,http://www.darphin.co.uk/product/8432/21251/skincare/category/best-sellers/azahar-cleansing-micellar-water/all-in-one-french-cleanser/index.tmpl,http://www.darphin.co.uk/product/8432/42593/skincare/category/best-sellers/lumire-essentielle-serum/index.tmpl,http://www.darphin.co.uk/product/8432/21661/skincare/category/best-sellers/hydraskin-intensive-moisturising-serum/hydrating-serum/index.tmpl,http://www.darphin.co.uk/product/8432/42054/skincare/category/best-sellers/linstitut-facial-sonic-cleansing-and-massaging-expert/the-perfect-cleansing-experience/index.tmpl,http://www.darphin.co.uk/product/8432/21552/skincare/category/best-sellers/skin-mat-purifying-aromatic-clay-mask/index.tmpl,http://www.darphin.co.uk/products/search/esearch.tmpl?search=face,,,,,,,,,4111111111111111
TestScripts-Mobile,TC03_GU_cartpagechecks_diffBilling_checkout,1,1,http://www.darphin.co.uk/product/8491/21417/skincare/collections/intral/intral-redness-relief-soothing-serum/for-a-soothed-looking-complexion/index.tmpl,elcbobbi31@gmail.com,123456,Test,Test,20 Dean's Yard,SW1P3PA,London,AL,6598743215,5555555555554444,312,aqa_exship,,,,sjarre_1360284165_per@gmail.com,elconline,D:\Spritz_Setup_5_0\Spritz 5.0\Projects\TestAttributes_BB\BB_Loop.exe,https://www.darphin.co.uk/checkout/viewcart.tmpl,99501,Anchorage,https://www.darphin.co.uk/account/index.tmpl,http://www.darphin.co.uk/product/8491/21419/skincare/collections/intral/intral-cleansing-milk/sensitive-skin/index.tmpl,http://www.darphin.co.uk/product/8491/21618/skincare/collections/intral/intral-soothing-cream/for-a-soothed-looking-complexion/index.tmpl,http://www.darphin.co.uk/product/8491/21668/skincare/collections/intral/intral-shield-spf50/for-sensitive-skin/index.tmpl,http://www.darphin.co.uk/product/8470/37507/skincare/category/essential-oil-elixirs/8-flower-nectar-oil-cream/deeply-moisturising-and-nourishing/index.tmpl,http://www.darphin.co.uk/product/8470/21285/skincare/category/essential-oil-elixirs/aromatic-purifying-balm/overnight-treatment/index.tmpl,http://www.darphin.co.uk/product/8432/21251/skincare/category/best-sellers/azahar-cleansing-micellar-water/all-in-one-french-cleanser/index.tmpl,http://www.darphin.co.uk/product/8432/42593/skincare/category/best-sellers/lumire-essentielle-serum/index.tmpl,http://www.darphin.co.uk/product/8432/21661/skincare/category/best-sellers/hydraskin-intensive-moisturising-serum/hydrating-serum/index.tmpl,http://www.darphin.co.uk/product/8432/42054/skincare/category/best-sellers/linstitut-facial-sonic-cleansing-and-massaging-expert/the-perfect-cleansing-experience/index.tmpl,http://www.darphin.co.uk/product/8432/21552/skincare/category/best-sellers/skin-mat-purifying-aromatic-clay-mask/index.tmpl,http://www.darphin.co.uk/products/search/esearch.tmpl?search=face,,,,,,,,,4111111111111111
TestScripts-PC,TC04_RU_LU_PU_onfile_fav_updatealldetails_checkout,1,1,http://www.darphin.co.uk/product/8491/21417/skincare/collections/intral/intral-redness-relief-soothing-serum/for-a-soothed-looking-complexion/index.tmpl,elcglobal2@gmail.com,111111,Adam,Fuller,20 Dean's Yard,SW1P3PA,London,AL,6598743215,5555555555554444,312,aqa_exship,,,24866785,sjarre_1360284165_per@gmail.com,Kalai,D:\Spritz_Setup_5_0\Spritz 5.0\Projects\TestAttributes_BB\BB_Loop.exe,https://www.darphin.co.uk/checkout/viewcart.tmpl,99501,Anchorage,https://www.darphin.co.uk/account/index.tmpl,http://www.darphin.co.uk/product/8491/21419/skincare/collections/intral/intral-cleansing-milk/sensitive-skin/index.tmpl,http://www.darphin.co.uk/product/8491/21618/skincare/collections/intral/intral-soothing-cream/for-a-soothed-looking-complexion/index.tmpl,http://www.darphin.co.uk/product/8491/21668/skincare/collections/intral/intral-shield-spf50/for-sensitive-skin/index.tmpl,http://www.darphin.co.uk/product/8470/37507/skincare/category/essential-oil-elixirs/8-flower-nectar-oil-cream/deeply-moisturising-and-nourishing/index.tmpl,http://www.darphin.co.uk/product/8470/21285/skincare/category/essential-oil-elixirs/aromatic-purifying-balm/overnight-treatment/index.tmpl,http://www.darphin.co.uk/product/8432/21251/skincare/category/best-sellers/azahar-cleansing-micellar-water/all-in-one-french-cleanser/index.tmpl,http://www.darphin.co.uk/product/8432/42593/skincare/category/best-sellers/lumire-essentielle-serum/index.tmpl,http://www.darphin.co.uk/product/8432/21661/skincare/category/best-sellers/hydraskin-intensive-moisturising-serum/hydrating-serum/index.tmpl,http://www.darphin.co.uk/product/8432/42054/skincare/category/best-sellers/linstitut-facial-sonic-cleansing-and-massaging-expert/the-perfect-cleansing-experience/index.tmpl,http://www.darphin.co.uk/product/8432/21552/skincare/category/best-sellers/skin-mat-purifying-aromatic-clay-mask/index.tmpl,http://www.darphin.co.uk/products/search/esearch.tmpl?search=face,,,,,,,,,4111111111111111
TestScripts-Mobile,TC04_RU_LU_PU_onfile_fav_updatealldetails_checkout,1,1,http://www.darphin.co.uk/product/8491/21417/skincare/collections/intral/intral-redness-relief-soothing-serum/for-a-soothed-looking-complexion/index.tmpl,elcglobal2@gmail.com,111111,Test,Anand,20 Dean's Yard,SW1P3PA,London,AL,6598743215,5555555555554444,312,aqa_exship,,,,sjarre_1360284165_per@gmail.com,Kalai,D:\Spritz_Setup_5_0\Spritz 5.0\Projects\TestAttributes_BB\BB_Loop.exe,https://www.darphin.co.uk/checkout/viewcart.tmpl,,,https://www.darphin.co.uk/account/index.tmpl,http://www.darphin.co.uk/product/8491/21419/skincare/collections/intral/intral-cleansing-milk/sensitive-skin/index.tmpl,http://www.darphin.co.uk/product/8491/21618/skincare/collections/intral/intral-soothing-cream/for-a-soothed-looking-complexion/index.tmpl,http://www.darphin.co.uk/product/8491/21668/skincare/collections/intral/intral-shield-spf50/for-sensitive-skin/index.tmpl,http://www.darphin.co.uk/product/8470/37507/skincare/category/essential-oil-elixirs/8-flower-nectar-oil-cream/deeply-moisturising-and-nourishing/index.tmpl,http://www.darphin.co.uk/product/8470/21285/skincare/category/essential-oil-elixirs/aromatic-purifying-balm/overnight-treatment/index.tmpl,http://www.darphin.co.uk/product/8432/21251/skincare/category/best-sellers/azahar-cleansing-micellar-water/all-in-one-french-cleanser/index.tmpl,http://www.darphin.co.uk/product/8432/42593/skincare/category/best-sellers/lumire-essentielle-serum/index.tmpl,http://www.darphin.co.uk/product/8432/21661/skincare/category/best-sellers/hydraskin-intensive-moisturising-serum/hydrating-serum/index.tmpl,http://www.darphin.co.uk/product/8432/42054/skincare/category/best-sellers/linstitut-facial-sonic-cleansing-and-massaging-expert/the-perfect-cleansing-experience/index.tmpl,http://www.darphin.co.uk/product/8432/21552/skincare/category/best-sellers/skin-mat-purifying-aromatic-clay-mask/index.tmpl,http://www.darphin.co.uk/products/search/esearch.tmpl?search=face,,,cambridge,http://www.darphin.co.uk/products/8432/skincare/category/best-sellers/index.tmpl,,,,,4111111111111111
TestScripts-PC,TC06_Store_Locator,1,1,https://www.darphin.co.uk/locator,,123456,Test,Test,20 Dean's Yard,SW1P3PA,London,AL,6598743215,5555555555554444,312,aqa_exship,,,,sjarre_1360284165_per@gmail.com,elconline,D:\Spritz_Setup_5_0\Spritz 5.0\Projects\TestAttributes_BB\BB_Loop.exe,https://www.darphin.co.uk/checkout/viewcart.tmpl,,,,http://www.darphin.co.uk/product/8491/21419/skincare/collections/intral/intral-cleansing-milk/sensitive-skin/index.tmpl,http://www.darphin.co.uk/product/8491/21618/skincare/collections/intral/intral-soothing-cream/for-a-soothed-looking-complexion/index.tmpl,http://www.darphin.co.uk/product/8491/21668/skincare/collections/intral/intral-shield-spf50/for-sensitive-skin/index.tmpl,http://www.darphin.co.uk/product/8470/37507/skincare/category/essential-oil-elixirs/8-flower-nectar-oil-cream/deeply-moisturising-and-nourishing/index.tmpl,http://www.darphin.co.uk/product/8470/21285/skincare/category/essential-oil-elixirs/aromatic-purifying-balm/overnight-treatment/index.tmpl,http://www.darphin.co.uk/product/8432/21251/skincare/category/best-sellers/azahar-cleansing-micellar-water/all-in-one-french-cleanser/index.tmpl,http://www.darphin.co.uk/product/8432/42593/skincare/category/best-sellers/lumire-essentielle-serum/index.tmpl,http://www.darphin.co.uk/product/8432/21661/skincare/category/best-sellers/hydraskin-intensive-moisturising-serum/hydrating-serum/index.tmpl,http://www.darphin.co.uk/product/8432/42054/skincare/category/best-sellers/linstitut-facial-sonic-cleansing-and-massaging-expert/the-perfect-cleansing-experience/index.tmpl,http://www.darphin.co.uk/product/8432/21552/skincare/category/best-sellers/skin-mat-purifying-aromatic-clay-mask/index.tmpl,http://www.darphin.co.uk/products/search/esearch.tmpl?search=face,,,cambridge,http://www.darphin.co.uk/products/8432/skincare/category/best-sellers/index.tmpl,wcgift,,,,4111111111111111
TestScripts-Mobile,TC06_Storelocator ,1,1,http://www.darphin.co.uk/locator,,123456,Test,Test,20 Dean's Yard,SW1P3PA,London,AL,6598743215,5555555555554444,312,aqa_exship,,,,sjarre_1360284165_per@gmail.com,elconline,D:\Spritz_Setup_5_0\Spritz 5.0\Projects\TestAttributes_BB\BB_Loop.exe,https://www.darphin.co.uk/checkout/viewcart.tmpl,99501,Anchorage,https://www.darphin.co.uk/account/index.tmpl,http://www.darphin.co.uk/product/8491/21419/skincare/collections/intral/intral-cleansing-milk/sensitive-skin/index.tmpl,http://www.darphin.co.uk/product/8491/21618/skincare/collections/intral/intral-soothing-cream/for-a-soothed-looking-complexion/index.tmpl,http://www.darphin.co.uk/product/8491/21668/skincare/collections/intral/intral-shield-spf50/for-sensitive-skin/index.tmpl,http://www.darphin.co.uk/product/8470/37507/skincare/category/essential-oil-elixirs/8-flower-nectar-oil-cream/deeply-moisturising-and-nourishing/index.tmpl,http://www.darphin.co.uk/product/8470/21285/skincare/category/essential-oil-elixirs/aromatic-purifying-balm/overnight-treatment/index.tmpl,http://www.darphin.co.uk/product/8432/21251/skincare/category/best-sellers/azahar-cleansing-micellar-water/all-in-one-french-cleanser/index.tmpl,http://www.darphin.co.uk/product/8432/42593/skincare/category/best-sellers/lumire-essentielle-serum/index.tmpl,http://www.darphin.co.uk/product/8432/21661/skincare/category/best-sellers/hydraskin-intensive-moisturising-serum/hydrating-serum/index.tmpl,http://www.darphin.co.uk/product/8432/42054/skincare/category/best-sellers/linstitut-facial-sonic-cleansing-and-massaging-expert/the-perfect-cleansing-experience/index.tmpl,http://www.darphin.co.uk/product/8432/21552/skincare/category/best-sellers/skin-mat-purifying-aromatic-clay-mask/index.tmpl,http://www.darphin.co.uk/products/search/esearch.tmpl?search=face,,,cambridge,http://www.darphin.co.uk/products/8432/skincare/category/best-sellers/index.tmpl,wcgift,,,,4111111111111111
TestScripts-PC,TC07_GU_cartpagechecks_paypal,1,1,http://www.darphin.co.uk/product/8491/21417/skincare/collections/intral/intral-redness-relief-soothing-serum/for-a-soothed-looking-complexion/index.tmpl,elcbobbi21@gmail.com,123456,Test,Test,20 Dean's Yard,SW1P3PA,London,AL,6598743215,5555555555554444,312,chanellruuby17,7777085735371250,95081674,,sjarre_1360284165_per@gmail.com,elconline,D:\Spritz_Setup_5_0\Spritz 5.0\Projects\TestAttributes_BB\BB_Loop.exe,https://www.darphin.co.uk/checkout/viewcart.tmpl,99501,Anchorage,https://www.darphin.co.uk/account/index.tmpl,http://www.darphin.co.uk/product/8491/21419/skincare/collections/intral/intral-cleansing-milk/sensitive-skin/index.tmpl,http://www.darphin.co.uk/product/8491/21618/skincare/collections/intral/intral-soothing-cream/for-a-soothed-looking-complexion/index.tmpl,http://www.darphin.co.uk/product/8491/21668/skincare/collections/intral/intral-shield-spf50/for-sensitive-skin/index.tmpl,http://www.darphin.co.uk/product/8470/37507/skincare/category/essential-oil-elixirs/8-flower-nectar-oil-cream/deeply-moisturising-and-nourishing/index.tmpl,http://www.darphin.co.uk/product/8470/21285/skincare/category/essential-oil-elixirs/aromatic-purifying-balm/overnight-treatment/index.tmpl,http://www.darphin.co.uk/product/8432/21251/skincare/category/best-sellers/azahar-cleansing-micellar-water/all-in-one-french-cleanser/index.tmpl,http://www.darphin.co.uk/product/8432/42593/skincare/category/best-sellers/lumire-essentielle-serum/index.tmpl,http://www.darphin.co.uk/product/8432/21661/skincare/category/best-sellers/hydraskin-intensive-moisturising-serum/hydrating-serum/index.tmpl,http://www.darphin.co.uk/product/8432/42054/skincare/category/best-sellers/linstitut-facial-sonic-cleansing-and-massaging-expert/the-perfect-cleansing-experience/index.tmpl,http://www.darphin.co.uk/product/8432/21552/skincare/category/best-sellers/skin-mat-purifying-aromatic-clay-mask/index.tmpl,http://www.darphin.co.uk/products/search/esearch.tmpl?search=face,,,,http://www.darphin.co.uk/products/8432/skincare/category/best-sellers/index.tmpl,wcgift,,,,4111111111111111
TestScripts-Mobile,TC07_GU_cartpagechecks_paypal,1,1,http://www.darphin.co.uk/product/8491/21417/skincare/collections/intral/intral-redness-relief-soothing-serum/for-a-soothed-looking-complexion/index.tmpl,elcbobbinfn21@gmail.com,123456,Test,Test,20 Dean's Yard,SW1P3PA,London,AL,6598743215,5555555555554444,312,chanellruuby17,7777085735371250,95081674,,sjarre_1360284165_per@gmail.com,Kalai,D:\Spritz_Setup_5_0\Spritz 5.0\Projects\TestAttributes_BB\BB_Loop.exe,https://www.darphin.co.uk/checkout/viewcart.tmpl,99501,Anchorage,https://www.darphin.co.uk/account/index.tmpl,http://www.darphin.co.uk/product/8491/21419/skincare/collections/intral/intral-cleansing-milk/sensitive-skin/index.tmpl,http://www.darphin.co.uk/product/8491/21618/skincare/collections/intral/intral-soothing-cream/for-a-soothed-looking-complexion/index.tmpl,http://www.darphin.co.uk/product/8491/21668/skincare/collections/intral/intral-shield-spf50/for-sensitive-skin/index.tmpl,http://www.darphin.co.uk/product/8470/37507/skincare/category/essential-oil-elixirs/8-flower-nectar-oil-cream/deeply-moisturising-and-nourishing/index.tmpl,http://www.darphin.co.uk/product/8470/21285/skincare/category/essential-oil-elixirs/aromatic-purifying-balm/overnight-treatment/index.tmpl,http://www.darphin.co.uk/product/8432/21251/skincare/category/best-sellers/azahar-cleansing-micellar-water/all-in-one-french-cleanser/index.tmpl,http://www.darphin.co.uk/product/8432/42593/skincare/category/best-sellers/lumire-essentielle-serum/index.tmpl,http://www.darphin.co.uk/product/8432/21661/skincare/category/best-sellers/hydraskin-intensive-moisturising-serum/hydrating-serum/index.tmpl,http://www.darphin.co.uk/product/8432/42054/skincare/category/best-sellers/linstitut-facial-sonic-cleansing-and-massaging-expert/the-perfect-cleansing-experience/index.tmpl,http://www.darphin.co.uk/product/8432/21552/skincare/category/best-sellers/skin-mat-purifying-aromatic-clay-mask/index.tmpl,http://www.darphin.co.uk/products/search/esearch.tmpl?search=face,,,cambridge,http://www.darphin.co.uk/products/8432/skincare/category/best-sellers/index.tmpl,wcgift,,,,4111111111111111
TestScripts-PC,TC08_NU_OfferCode_checkout,1,1,http://www.darphin.co.uk/product/8491/21417/skincare/collections/intral/intral-redness-relief-soothing-serum/for-a-soothed-looking-complexion/index.tmpl,elcdarphin41@gmail.com,123456,Test,Test,20 Dean's Yard,SW1P3PA,London,AL,6598743215,5555555555554444,312,birthday,6125105905896915,79599370,,sjarre_1360284165_per@gmail.com,Kalai,D:\Spritz_Setup_5_0\Spritz 5.0\Projects\TestAttributes_BB\BB_Loop.exe,https://www.darphin.co.uk/checkout/viewcart.tmpl,99501,Anchorage,https://www.darphin.co.uk/account/index.tmpl,http://www.darphin.co.uk/product/8491/21419/skincare/collections/intral/intral-cleansing-milk/sensitive-skin/index.tmpl,http://www.darphin.co.uk/product/8491/21618/skincare/collections/intral/intral-soothing-cream/for-a-soothed-looking-complexion/index.tmpl,http://www.darphin.co.uk/product/8491/21668/skincare/collections/intral/intral-shield-spf50/for-sensitive-skin/index.tmpl,http://www.darphin.co.uk/product/8470/37507/skincare/category/essential-oil-elixirs/8-flower-nectar-oil-cream/deeply-moisturising-and-nourishing/index.tmpl,http://www.darphin.co.uk/product/8470/21285/skincare/category/essential-oil-elixirs/aromatic-purifying-balm/overnight-treatment/index.tmpl,http://www.darphin.co.uk/product/8432/21251/skincare/category/best-sellers/azahar-cleansing-micellar-water/all-in-one-french-cleanser/index.tmpl,http://www.darphin.co.uk/product/8432/42593/skincare/category/best-sellers/lumire-essentielle-serum/index.tmpl,http://www.darphin.co.uk/product/8432/21661/skincare/category/best-sellers/hydraskin-intensive-moisturising-serum/hydrating-serum/index.tmpl,http://www.darphin.co.uk/product/8432/42054/skincare/category/best-sellers/linstitut-facial-sonic-cleansing-and-massaging-expert/the-perfect-cleansing-experience/index.tmpl,http://www.darphin.co.uk/product/8432/21552/skincare/category/best-sellers/skin-mat-purifying-aromatic-clay-mask/index.tmpl,http://www.darphin.co.uk/products/search/esearch.tmpl?search=face,,,,http://www.darphin.co.uk/products/8432/skincare/category/best-sellers/index.tmpl,wcgift,,,,4111111111111111
TestScripts-Mobile,TC08_NU_OfferCode_checkout,1,1,http://www.darphin.co.uk/product/8491/21417/skincare/collections/intral/intral-redness-relief-soothing-serum/for-a-soothed-looking-complexion/index.tmpl,elcdarphin51@gmail.com,123456,Test,Test,20 Dean's Yard,SW1P3PA,London,AL,6598743215,5555555555554444,312,birthday,6125105905896915,79599370,,sjarre_1360284165_per@gmail.com,Kalai,D:\Spritz_Setup_5_0\Spritz 5.0\Projects\TestAttributes_BB\BB_Loop.exe,https://www.darphin.co.uk/checkout/viewcart.tmpl,,,https://www.darphin.co.uk/account/index.tmpl,http://www.darphin.co.uk/product/8491/21419/skincare/collections/intral/intral-cleansing-milk/sensitive-skin/index.tmpl,http://www.darphin.co.uk/product/8491/21618/skincare/collections/intral/intral-soothing-cream/for-a-soothed-looking-complexion/index.tmpl,http://www.darphin.co.uk/product/8491/21668/skincare/collections/intral/intral-shield-spf50/for-sensitive-skin/index.tmpl,http://www.darphin.co.uk/product/8470/37507/skincare/category/essential-oil-elixirs/8-flower-nectar-oil-cream/deeply-moisturising-and-nourishing/index.tmpl,http://www.darphin.co.uk/product/8470/21285/skincare/category/essential-oil-elixirs/aromatic-purifying-balm/overnight-treatment/index.tmpl,http://www.darphin.co.uk/product/8432/21251/skincare/category/best-sellers/azahar-cleansing-micellar-water/all-in-one-french-cleanser/index.tmpl,http://www.darphin.co.uk/product/8432/42593/skincare/category/best-sellers/lumire-essentielle-serum/index.tmpl,http://www.darphin.co.uk/product/8432/21661/skincare/category/best-sellers/hydraskin-intensive-moisturising-serum/hydrating-serum/index.tmpl,http://www.darphin.co.uk/product/8432/42054/skincare/category/best-sellers/linstitut-facial-sonic-cleansing-and-massaging-expert/the-perfect-cleansing-experience/index.tmpl,http://www.darphin.co.uk/product/8432/21552/skincare/category/best-sellers/skin-mat-purifying-aromatic-clay-mask/index.tmpl,http://www.darphin.co.uk/products/search/esearch.tmpl?search=face,,,cambridge,http://www.darphin.co.uk/products/8432/skincare/category/best-sellers/index.tmpl,wcgift,,,,4111111111111111
TestScripts-PC,TC09_NU_Addfavorites_SPP_MPP_Wishlist,1,1,http://www.darphin.co.uk/product/8491/21417/skincare/collections/intral/intral-redness-relief-soothing-serum/for-a-soothed-looking-complexion/index.tmpl,elcbobbi61@gmail.com,123456,Test,Test,20 Dean's Yard,SW1P3PA,London,AL,6598743215,5555555555554444,312,chanellruuby17,6125105905896915,79599370,24866809,sjarre_1360284165_per@gmail.com,Kalai,D:\Spritz_Setup_5_0\Spritz 5.0\Projects\TestAttributes_BB\BB_Loop.exe,https://www.darphin.co.uk/checkout/viewcart.tmpl,,,https://www.darphin.co.uk/account/index.tmpl,http://www.darphin.co.uk/product/8491/21419/skincare/collections/intral/intral-cleansing-milk/sensitive-skin/index.tmpl,http://www.darphin.co.uk/product/8491/21618/skincare/collections/intral/intral-soothing-cream/for-a-soothed-looking-complexion/index.tmpl,http://www.darphin.co.uk/product/8491/21668/skincare/collections/intral/intral-shield-spf50/for-sensitive-skin/index.tmpl,http://www.darphin.co.uk/product/8470/37507/skincare/category/essential-oil-elixirs/8-flower-nectar-oil-cream/deeply-moisturising-and-nourishing/index.tmpl,http://www.darphin.co.uk/product/8470/21285/skincare/category/essential-oil-elixirs/aromatic-purifying-balm/overnight-treatment/index.tmpl,http://www.darphin.co.uk/product/8432/21251/skincare/category/best-sellers/azahar-cleansing-micellar-water/all-in-one-french-cleanser/index.tmpl,http://www.darphin.co.uk/product/8432/42593/skincare/category/best-sellers/lumire-essentielle-serum/index.tmpl,http://www.darphin.co.uk/product/8432/21661/skincare/category/best-sellers/hydraskin-intensive-moisturising-serum/hydrating-serum/index.tmpl,http://www.darphin.co.uk/product/8432/42054/skincare/category/best-sellers/linstitut-facial-sonic-cleansing-and-massaging-expert/the-perfect-cleansing-experience/index.tmpl,http://www.darphin.co.uk/product/8432/21552/skincare/category/best-sellers/skin-mat-purifying-aromatic-clay-mask/index.tmpl,http://www.darphin.co.uk/products/search/esearch.tmpl?search=face,elcqa2@gmail.com,123456,,http://www.darphin.co.uk/products/8432/skincare/category/best-sellers/index.tmpl,wcgift,,,,4111111111111111
TestScripts-Mobile,TC09_NU_Addfavorites_SPP_MPP_Wishlist,1,1,http://www.darphin.co.uk/product/8491/21417/skincare/collections/intral/intral-redness-relief-soothing-serum/for-a-soothed-looking-complexion/index.tmpl,elcbobbi71@gmail.com,123456,Test,Test,20 Dean's Yard,SW1P3PA,London,AL,6598743215,5555555555554444,312,chanellruuby17,,,,sjarre_1360284165_per@gmail.com,Kalai,D:\Spritz_Setup_5_0\Spritz 5.0\Projects\TestAttributes_BB\BB_Loop.exe,https://www.darphin.co.uk/checkout/viewcart.tmpl,,,https://www.darphin.co.uk/account/index.tmpl,http://www.darphin.co.uk/product/8491/21419/skincare/collections/intral/intral-cleansing-milk/sensitive-skin/index.tmpl,http://www.darphin.co.uk/product/8491/21618/skincare/collections/intral/intral-soothing-cream/for-a-soothed-looking-complexion/index.tmpl,http://www.darphin.co.uk/product/8491/21668/skincare/collections/intral/intral-shield-spf50/for-sensitive-skin/index.tmpl,http://www.darphin.co.uk/product/8470/37507/skincare/category/essential-oil-elixirs/8-flower-nectar-oil-cream/deeply-moisturising-and-nourishing/index.tmpl,http://www.darphin.co.uk/product/8470/21285/skincare/category/essential-oil-elixirs/aromatic-purifying-balm/overnight-treatment/index.tmpl,http://www.darphin.co.uk/product/8432/21251/skincare/category/best-sellers/azahar-cleansing-micellar-water/all-in-one-french-cleanser/index.tmpl,http://www.darphin.co.uk/product/8432/42593/skincare/category/best-sellers/lumire-essentielle-serum/index.tmpl,http://www.darphin.co.uk/product/8432/21661/skincare/category/best-sellers/hydraskin-intensive-moisturising-serum/hydrating-serum/index.tmpl,http://www.darphin.co.uk/product/8432/42054/skincare/category/best-sellers/linstitut-facial-sonic-cleansing-and-massaging-expert/the-perfect-cleansing-experience/index.tmpl,http://www.darphin.co.uk/product/8432/21552/skincare/category/best-sellers/skin-mat-purifying-aromatic-clay-mask/index.tmpl,http://www.darphin.co.uk/products/search/esearch.tmpl?search=face,elcqa2@gmail.com,123456,cambridge,http://www.darphin.co.uk/products/8432/skincare/category/best-sellers/index.tmpl,wcgift,,,,4111111111111111
TestScripts-PC,TC12_RU_LU_PU_notonfile_pastpurchase_checkout,1,1,http://www.darphin.co.uk/product/8491/21417/skincare/collections/intral/intral-redness-relief-soothing-serum/for-a-soothed-looking-complexion/index.tmpl,elcglobal2@gmail.com,111111,Test,Test,20 Dean's Yard,SW1P3PA,London,AL,6598743215,4111111111111111,312,birthday,,,24916747,sjarre_1360284165_per@gmail.com,Kalai,D:\Spritz_Setup_5_0\Spritz 5.0\Projects\TestAttributes_BB\BB_Loop.exe,https://www.darphin.co.uk/checkout/viewcart.tmpl,,,https://www.darphin.co.uk/account/index.tmpl,http://www.darphin.co.uk/product/8491/21419/skincare/collections/intral/intral-cleansing-milk/sensitive-skin/index.tmpl,http://www.darphin.co.uk/product/8491/21618/skincare/collections/intral/intral-soothing-cream/for-a-soothed-looking-complexion/index.tmpl,http://www.darphin.co.uk/product/8491/21668/skincare/collections/intral/intral-shield-spf50/for-sensitive-skin/index.tmpl,http://www.darphin.co.uk/product/8470/37507/skincare/category/essential-oil-elixirs/8-flower-nectar-oil-cream/deeply-moisturising-and-nourishing/index.tmpl,http://www.darphin.co.uk/product/8470/21285/skincare/category/essential-oil-elixirs/aromatic-purifying-balm/overnight-treatment/index.tmpl,http://www.darphin.co.uk/product/8432/21251/skincare/category/best-sellers/azahar-cleansing-micellar-water/all-in-one-french-cleanser/index.tmpl,http://www.darphin.co.uk/product/8432/42593/skincare/category/best-sellers/lumire-essentielle-serum/index.tmpl,http://www.darphin.co.uk/product/8432/21661/skincare/category/best-sellers/hydraskin-intensive-moisturising-serum/hydrating-serum/index.tmpl,http://www.darphin.co.uk/product/8432/42054/skincare/category/best-sellers/linstitut-facial-sonic-cleansing-and-massaging-expert/the-perfect-cleansing-experience/index.tmpl,http://www.darphin.co.uk/product/8432/21552/skincare/category/best-sellers/skin-mat-purifying-aromatic-clay-mask/index.tmpl,http://www.darphin.co.uk/products/search/esearch.tmpl?search=face,,123456,,http://www.darphin.co.uk/products/8432/skincare/category/best-sellers/index.tmpl,,,,,4111111111111111
TestScripts-Mobile,TC12_RU_LU_PU_notonfile_pastpurchase_checkout,1,1,http://www.darphin.co.uk/product/8491/21417/skincare/collections/intral/intral-redness-relief-soothing-serum/for-a-soothed-looking-complexion/index.tmpl,elcglobal2@gmail.com,111111,Test,Test,20 Dean's Yard,SW1P3PA,London,AL,6598743215,4111111111111111,312,birthday,,,,sjarre_1360284165_per@gmail.com,Kalai,D:\Spritz_Setup_5_0\Spritz 5.0\Projects\TestAttributes_BB\BB_Loop.exe,https://www.darphin.co.uk/checkout/viewcart.tmpl,,,https://www.darphin.co.uk/account/index.tmpl,http://www.darphin.co.uk/product/8491/21419/skincare/collections/intral/intral-cleansing-milk/sensitive-skin/index.tmpl,http://www.darphin.co.uk/product/8491/21618/skincare/collections/intral/intral-soothing-cream/for-a-soothed-looking-complexion/index.tmpl,http://www.darphin.co.uk/product/8491/21668/skincare/collections/intral/intral-shield-spf50/for-sensitive-skin/index.tmpl,http://www.darphin.co.uk/product/8470/37507/skincare/category/essential-oil-elixirs/8-flower-nectar-oil-cream/deeply-moisturising-and-nourishing/index.tmpl,http://www.darphin.co.uk/product/8470/21285/skincare/category/essential-oil-elixirs/aromatic-purifying-balm/overnight-treatment/index.tmpl,http://www.darphin.co.uk/product/8432/21251/skincare/category/best-sellers/azahar-cleansing-micellar-water/all-in-one-french-cleanser/index.tmpl,http://www.darphin.co.uk/product/8432/42593/skincare/category/best-sellers/lumire-essentielle-serum/index.tmpl,http://www.darphin.co.uk/product/8432/21661/skincare/category/best-sellers/hydraskin-intensive-moisturising-serum/hydrating-serum/index.tmpl,http://www.darphin.co.uk/product/8432/42054/skincare/category/best-sellers/linstitut-facial-sonic-cleansing-and-massaging-expert/the-perfect-cleansing-experience/index.tmpl,http://www.darphin.co.uk/product/8432/21552/skincare/category/best-sellers/skin-mat-purifying-aromatic-clay-mask/index.tmpl,http://www.darphin.co.uk/products/search/esearch.tmpl?search=face,,123456,cambridge,http://www.darphin.co.uk/products/8432/skincare/category/best-sellers/index.tmpl,,,,,4111111111111111
TestScripts-PC,TC13_RU_onfile_setsAR_checkout,1,1,https://www.darphin.co.uk,elcglobal2@gmail.com,111111,Test,Test,20 Dean's Yard,SW1P3PA,London,AL,6598743215,4111111111111111,312,birthday,7777085735371250,95081674,,sjarre_1360284165_per@gmail.com,Kalai,D:\Spritz_Setup_5_0\Spritz 5.0\Projects\TestAttributes_BB\BB_Loop.exe,https://www.darphin.co.uk/checkout/viewcart.tmpl,,,https://www.darphin.co.uk/account/index.tmpl,http://www.darphin.co.uk/product/8491/21419/skincare/collections/intral/intral-cleansing-milk/sensitive-skin/index.tmpl,http://www.darphin.co.uk/product/8491/21618/skincare/collections/intral/intral-soothing-cream/for-a-soothed-looking-complexion/index.tmpl,http://www.darphin.co.uk/product/8491/21668/skincare/collections/intral/intral-shield-spf50/for-sensitive-skin/index.tmpl,http://www.darphin.co.uk/product/8470/37507/skincare/category/essential-oil-elixirs/8-flower-nectar-oil-cream/deeply-moisturising-and-nourishing/index.tmpl,http://www.darphin.co.uk/product/8470/21285/skincare/category/essential-oil-elixirs/aromatic-purifying-balm/overnight-treatment/index.tmpl,http://www.darphin.co.uk/product/8432/21251/skincare/category/best-sellers/azahar-cleansing-micellar-water/all-in-one-french-cleanser/index.tmpl,http://www.darphin.co.uk/product/8432/42593/skincare/category/best-sellers/lumire-essentielle-serum/index.tmpl,http://www.darphin.co.uk/product/8432/21661/skincare/category/best-sellers/hydraskin-intensive-moisturising-serum/hydrating-serum/index.tmpl,http://www.darphin.co.uk/product/8432/42054/skincare/category/best-sellers/linstitut-facial-sonic-cleansing-and-massaging-expert/the-perfect-cleansing-experience/index.tmpl,http://www.darphin.co.uk/product/8432/21552/skincare/category/best-sellers/skin-mat-purifying-aromatic-clay-mask/index.tmpl,http://www.darphin.co.uk/products/search/esearch.tmpl?search=face,,123456,cambridge,http://www.darphin.co.uk/products/8432/skincare/category/best-sellers/index.tmpl,,,,,4111111111111111
TestScripts-Mobile,TC13_RU_onfile_setsAR_checkout,1,1,https://www.darphin.co.uk,elcglobal2@gmail.com,111111,Test,Test,20 Dean's Yard,SW1P3PA,London,AL,6598743215,4111111111111111,312,birthday,7777085735371250,95081674,,sjarre_1360284165_per@gmail.com,elconline,D:\Spritz_Setup_5_0\Spritz 5.0\Projects\TestAttributes_BB\BB_Loop.exe,https://www.darphin.co.uk/checkout/viewcart.tmpl,,,https://www.darphin.co.uk/account/index.tmpl,http://www.darphin.co.uk/product/8491/21419/skincare/collections/intral/intral-cleansing-milk/sensitive-skin/index.tmpl,http://www.darphin.co.uk/product/8491/21618/skincare/collections/intral/intral-soothing-cream/for-a-soothed-looking-complexion/index.tmpl,http://www.darphin.co.uk/product/8491/21668/skincare/collections/intral/intral-shield-spf50/for-sensitive-skin/index.tmpl,http://www.darphin.co.uk/product/8470/37507/skincare/category/essential-oil-elixirs/8-flower-nectar-oil-cream/deeply-moisturising-and-nourishing/index.tmpl,http://www.darphin.co.uk/product/8470/21285/skincare/category/essential-oil-elixirs/aromatic-purifying-balm/overnight-treatment/index.tmpl,http://www.darphin.co.uk/product/8432/21251/skincare/category/best-sellers/azahar-cleansing-micellar-water/all-in-one-french-cleanser/index.tmpl,http://www.darphin.co.uk/product/8432/42593/skincare/category/best-sellers/lumire-essentielle-serum/index.tmpl,http://www.darphin.co.uk/product/8432/21661/skincare/category/best-sellers/hydraskin-intensive-moisturising-serum/hydrating-serum/index.tmpl,http://www.darphin.co.uk/product/8432/42054/skincare/category/best-sellers/linstitut-facial-sonic-cleansing-and-massaging-expert/the-perfect-cleansing-experience/index.tmpl,http://www.darphin.co.uk/product/8432/21552/skincare/category/best-sellers/skin-mat-purifying-aromatic-clay-mask/index.tmpl,http://www.darphin.co.uk/products/search/esearch.tmpl?search=face,,123456,cambridge,http://www.darphin.co.uk/products/8432/skincare/category/best-sellers/index.tmpl,,,,,4111111111111111
TestScripts-PC,TC18_RU_nodetails_profilepagechecks_adddetails,1,1,http://www.darphin.co.uk/product/8491/21417/skincare/collections/intral/intral-redness-relief-soothing-serum/for-a-soothed-looking-complexion/index.tmpl,elcglobal2@gmail.com,111111,Test,Test,20 Dean's Yard,SW1P3PA,London,AL,6598743215,5555555555554444,312,aqa_exship,6125105905896915,79599370,,sjarre_1360284165_per@gmail.com,elconline,D:\Spritz_Setup_5_0\Spritz 5.0\Projects\TestAttributes_BB\BB_Loop.exe,https://www.darphin.co.uk/checkout/viewcart.tmpl,,,https://www.darphin.co.uk/account/index.tmpl,http://www.darphin.co.uk/product/8491/21419/skincare/collections/intral/intral-cleansing-milk/sensitive-skin/index.tmpl,http://www.darphin.co.uk/product/8491/21618/skincare/collections/intral/intral-soothing-cream/for-a-soothed-looking-complexion/index.tmpl,http://www.darphin.co.uk/product/8491/21668/skincare/collections/intral/intral-shield-spf50/for-sensitive-skin/index.tmpl,http://www.darphin.co.uk/product/8470/37507/skincare/category/essential-oil-elixirs/8-flower-nectar-oil-cream/deeply-moisturising-and-nourishing/index.tmpl,http://www.darphin.co.uk/product/8470/21285/skincare/category/essential-oil-elixirs/aromatic-purifying-balm/overnight-treatment/index.tmpl,http://www.darphin.co.uk/product/8432/21251/skincare/category/best-sellers/azahar-cleansing-micellar-water/all-in-one-french-cleanser/index.tmpl,http://www.darphin.co.uk/product/8432/42593/skincare/category/best-sellers/lumire-essentielle-serum/index.tmpl,http://www.darphin.co.uk/product/8432/21661/skincare/category/best-sellers/hydraskin-intensive-moisturising-serum/hydrating-serum/index.tmpl,http://www.darphin.co.uk/product/8432/42054/skincare/category/best-sellers/linstitut-facial-sonic-cleansing-and-massaging-expert/the-perfect-cleansing-experience/index.tmpl,http://www.darphin.co.uk/product/8432/21552/skincare/category/best-sellers/skin-mat-purifying-aromatic-clay-mask/index.tmpl,http://www.darphin.co.uk/products/search/esearch.tmpl?search=face,elcqa7@gmail.com,123456,winnipeg,http://www.darphin.co.uk/products/8432/skincare/category/best-sellers/index.tmpl,,,,,4111111111111111
TestScripts-Mobile,TC18_RU_nodetails_profilepagechecks_adddetails,1,1,http://www.darphin.co.uk/product/8491/21417/skincare/collections/intral/intral-redness-relief-soothing-serum/for-a-soothed-looking-complexion/index.tmpl,elcglobal2@gmail.com,111111,Test,Test,20 Dean's Yard,SW1P3PA,London,AL,6598743215,5555555555554444,312,aqa_exship,6125105905896915,79599370,,sjarre_1360284165_per@gmail.com,elconline,D:\Spritz_Setup_5_0\Spritz 5.0\Projects\TestAttributes_BB\BB_Loop.exe,https://www.darphin.co.uk/checkout/viewcart.tmpl,,,https://www.darphin.co.uk/account/index.tmpl,http://www.darphin.co.uk/product/8491/21419/skincare/collections/intral/intral-cleansing-milk/sensitive-skin/index.tmpl,http://www.darphin.co.uk/product/8491/21618/skincare/collections/intral/intral-soothing-cream/for-a-soothed-looking-complexion/index.tmpl,http://www.darphin.co.uk/product/8491/21668/skincare/collections/intral/intral-shield-spf50/for-sensitive-skin/index.tmpl,http://www.darphin.co.uk/product/8470/37507/skincare/category/essential-oil-elixirs/8-flower-nectar-oil-cream/deeply-moisturising-and-nourishing/index.tmpl,http://www.darphin.co.uk/product/8470/21285/skincare/category/essential-oil-elixirs/aromatic-purifying-balm/overnight-treatment/index.tmpl,http://www.darphin.co.uk/product/8432/21251/skincare/category/best-sellers/azahar-cleansing-micellar-water/all-in-one-french-cleanser/index.tmpl,http://www.darphin.co.uk/product/8432/42593/skincare/category/best-sellers/lumire-essentielle-serum/index.tmpl,http://www.darphin.co.uk/product/8432/21661/skincare/category/best-sellers/hydraskin-intensive-moisturising-serum/hydrating-serum/index.tmpl,http://www.darphin.co.uk/product/8432/42054/skincare/category/best-sellers/linstitut-facial-sonic-cleansing-and-massaging-expert/the-perfect-cleansing-experience/index.tmpl,http://www.darphin.co.uk/product/8432/21552/skincare/category/best-sellers/skin-mat-purifying-aromatic-clay-mask/index.tmpl,http://www.darphin.co.uk/products/search/esearch.tmpl?search=face,,123456,cambridge,http://www.darphin.co.uk/products/8432/skincare/category/best-sellers/index.tmpl,,,,,4111111111111111
