Step,ObjectName,Description,Action,Input,Condition,Reference
"//1",Execute,,BaseRC:OpenAutoIt,@1,,
"//2",Execute,,BaseRC:BrowserStartUpMobile,@1,,
3,Execute,,TC03:AddProductFromSearchMobile,@1,,
4,Execute,,TC03:ViewCartNavigation,@1,,
5,Execute,,TC03:PageNavTillSamples,@1,,
6,Execute,,TC03:NewuserFlow,@1,,
7,Execute,,TC03:AddressDetails,@1,,
8,Execute,,TC03:PaymentWithDifferentBillingAddress,@1,,
"//9",Execute,,TC03:PlaceOrder,@1,,
"//10",Execute,,BaseRC:CloseAutoIt,@1,,
