Step,ObjectName,Description,Action,Input,Condition,Reference
"//1",Execute,,BaseRC:OpenAutoIt,@1,,
"//2",Execute,,BaseRC:BrowserStartUpMobile,@1,,
3,Execute,,TC06:StoreLocatorNavigation,@1,,
4,Execute,,TC06:SearchWithCityMobile,@1,,
5,Execute,,TC06:SearchwithZipcodeMobile,@1,,
"//6",Execute,,BaseRC:CloseAutoIt,@1,,
