Step,ObjectName,Description,Action,Input,Condition,Reference
1,Browser,Wait for Page to be loaded,waitForPageLoaded,,,
2,Browser,Wait for [<Data>] milli seconds,pause,@8000,,
3,PayPal RB,Click on [<Object>],clickByJS,,,Checkout
4,Browser,Wait for Page to be loaded,waitForPageLoaded,,,
5,Browser,Wait for [<Data>] milli seconds,pause,@5000,,
6,Browser,Scroll to [<Data>],scrollTo,"@250,550",,
7,T&C,Click on [<Object>],clickByJS,,,Checkout
8,Browser,Wait for [<Data>] milli seconds,pause,@2000,,
9,Place Order,Click on [<Object>],clickByJS,,,Checkout
10,Browser,Wait for [<Data>] milli seconds,pause,@15000,,
11,Browser,Wait for Page to be loaded,waitForPageLoaded,,,
12,Browser,Wait for [<Data>] milli seconds,pause,@10000,,
13,Browser,Assert if Browser's Url Contains [<Data>],assertUrlContains,@https://www.paypal.com,,
14,Browser,Wait for [<Data>] milli seconds,pause,@10000,,
