Step,ObjectName,Description,Action,Input,Condition,Reference
1,Browser,Wait for [<Data>] milli seconds,pause,@8000,,
2,AddNewCard,Click the [<Object>] if it exists,ClickIfExists,,,MobileElements
3,Browser,Wait for Page to be loaded,waitForPageLoaded,,,
4,Browser,Wait for [<Data>] milli seconds,pause,@5000,,
5,CC,Enter the value [<Data>] in the Field [<Object>],Set,Desktop:VisaCC,,Checkout
6,Browser,Wait for [<Data>] milli seconds,pause,@3000,,
7,Browser,Send Keys [<Data>]  to Window.,sendKeysToWindow,@Shift+Tab,,
8,Browser,Send Keys [<Data>]  to Window.,sendKeysToWindow,@Down,,
9,Browser,Send Keys [<Data>]  to Window.,sendKeysToWindow,@Tab,,
10,Browser,Send Keys [<Data>]  to Window.,sendKeysToWindow,@Tab,,
11,Browser,Send Keys [<Data>]  to Window.,sendKeysToWindow,@Down,,
12,Browser,Send Keys [<Data>]  to Window.,sendKeysToWindow,@Down,,
13,Browser,Send Keys [<Data>]  to Window.,sendKeysToWindow,@Down,,
14,Browser,Wait for [<Data>] milli seconds,pause,@2000,,
15,Browser,Send Keys [<Data>]  to Window.,sendKeysToWindow,@Tab,,
16,Browser,Send Keys [<Data>]  to Window.,sendKeysToWindow,@Down,,
17,Browser,Send Keys [<Data>]  to Window.,sendKeysToWindow,@Down,,
18,Browser,Send Keys [<Data>]  to Window.,sendKeysToWindow,@Down,,
19,Browser,Send Keys [<Data>]  to Window.,sendKeysToWindow,@Down,,
20,Browser,Wait for [<Data>] milli seconds,pause,@5000,,
21,CVV,Enter the value [<Data>] in the Field [<Object>],Set,Desktop:CVV,,Checkout
22,Browser,Wait for [<Data>] milli seconds,pause,@5000,,
23,Browser,Scroll to [<Data>],scrollTo,"@250,550",,
