Step,ObjectName,Description,Action,Input,Condition,Reference
1,Browser,,pause,@10000,,
2,Browser,,waitForPageLoaded,,,
3,Browser,,Open,Desktop:ViewcartURL,,
4,Browser,,waitForPageLoaded,,,
5,Browser,,pause,@7000,,
6,Browser,,sendKeysToWindow,@Esc,,
7,Browser,,pause,@3000,,
